<mxfile host="app.diagrams.net" modified="2024-01-18T21:06:02.572Z" agent="Mozilla/5.0 (Windows NT 10.0; Win64; x64) AppleWebKit/537.36 (KHTML, like Gecko) Chrome/120.0.0.0 Safari/537.36" etag="kNhqFG-b56TyLUvWKNng" version="22.1.21" type="gitlab">
  <diagram name="Página-1" id="QQybtbWxjVMIC-BUKThk">
    <mxGraphModel dx="2546" dy="2062" grid="1" gridSize="10" guides="1" tooltips="1" connect="1" arrows="1" fold="1" page="1" pageScale="1" pageWidth="827" pageHeight="1169" math="0" shadow="0">
      <root>
        <mxCell id="0" />
        <mxCell id="1" parent="0" />
        <mxCell id="Q2d6617z4SGyky7Ccd5C-2" value="peliculas" style="swimlane;childLayout=stackLayout;horizontal=1;startSize=50;horizontalStack=0;rounded=1;fontSize=14;fontStyle=0;strokeWidth=2;resizeParent=0;resizeLast=1;shadow=0;dashed=0;align=center;arcSize=4;whiteSpace=wrap;html=1;fillColor=#FF8754;" parent="1" vertex="1">
          <mxGeometry x="110" y="40" width="160" height="210" as="geometry" />
        </mxCell>
        <mxCell id="Q2d6617z4SGyky7Ccd5C-3" value="id (pk)&lt;br&gt;título&lt;br&gt;anho&lt;br&gt;genero&lt;br&gt;sinopsis&lt;br&gt;duración&lt;br&gt;país&lt;br&gt;idioma&lt;br&gt;imagen_portada&lt;br&gt;trailer_sinopsis" style="align=left;strokeColor=none;fillColor=none;spacingLeft=4;fontSize=12;verticalAlign=top;resizable=0;rotatable=0;part=1;html=1;" parent="Q2d6617z4SGyky7Ccd5C-2" vertex="1">
          <mxGeometry y="50" width="160" height="160" as="geometry" />
        </mxCell>
        <mxCell id="Q2d6617z4SGyky7Ccd5C-5" value="actores" style="swimlane;childLayout=stackLayout;horizontal=1;startSize=50;horizontalStack=0;rounded=1;fontSize=14;fontStyle=0;strokeWidth=2;resizeParent=0;resizeLast=1;shadow=0;dashed=0;align=center;arcSize=4;whiteSpace=wrap;html=1;fillColor=#FF8754;" parent="1" vertex="1">
          <mxGeometry x="350" y="270" width="160" height="130" as="geometry" />
        </mxCell>
        <mxCell id="Q2d6617z4SGyky7Ccd5C-6" value="id (pk)&lt;br&gt;nombre&lt;br&gt;nacionalidad&lt;br&gt;imagen" style="align=left;strokeColor=none;fillColor=none;spacingLeft=4;fontSize=12;verticalAlign=top;resizable=0;rotatable=0;part=1;html=1;" parent="Q2d6617z4SGyky7Ccd5C-5" vertex="1">
          <mxGeometry y="50" width="160" height="80" as="geometry" />
        </mxCell>
        <mxCell id="Q2d6617z4SGyky7Ccd5C-13" value="generos" style="swimlane;childLayout=stackLayout;horizontal=1;startSize=50;horizontalStack=0;rounded=1;fontSize=14;fontStyle=0;strokeWidth=2;resizeParent=0;resizeLast=1;shadow=0;dashed=0;align=center;arcSize=4;whiteSpace=wrap;html=1;fillColor=#FF8754;" parent="1" vertex="1">
          <mxGeometry x="-110" y="102.5" width="160" height="130" as="geometry" />
        </mxCell>
        <mxCell id="Q2d6617z4SGyky7Ccd5C-14" value="Id (pk)&lt;br&gt;nombre&lt;br&gt;descripción" style="align=left;strokeColor=none;fillColor=none;spacingLeft=4;fontSize=12;verticalAlign=top;resizable=0;rotatable=0;part=1;html=1;" parent="Q2d6617z4SGyky7Ccd5C-13" vertex="1">
          <mxGeometry y="50" width="160" height="80" as="geometry" />
        </mxCell>
        <mxCell id="Q2d6617z4SGyky7Ccd5C-15" value="plataformas" style="swimlane;childLayout=stackLayout;horizontal=1;startSize=50;horizontalStack=0;rounded=1;fontSize=14;fontStyle=0;strokeWidth=2;resizeParent=0;resizeLast=1;shadow=0;dashed=0;align=center;arcSize=4;whiteSpace=wrap;html=1;fillColor=#FF8754;" parent="1" vertex="1">
          <mxGeometry x="110" y="540" width="160" height="130" as="geometry" />
        </mxCell>
        <mxCell id="Q2d6617z4SGyky7Ccd5C-16" value="id (pk)&lt;br&gt;nombre" style="align=left;strokeColor=none;fillColor=none;spacingLeft=4;fontSize=12;verticalAlign=top;resizable=0;rotatable=0;part=1;html=1;" parent="Q2d6617z4SGyky7Ccd5C-15" vertex="1">
          <mxGeometry y="50" width="160" height="80" as="geometry" />
        </mxCell>
        <mxCell id="Q2d6617z4SGyky7Ccd5C-17" value="premios" style="swimlane;childLayout=stackLayout;horizontal=1;startSize=50;horizontalStack=0;rounded=1;fontSize=14;fontStyle=0;strokeWidth=2;resizeParent=0;resizeLast=1;shadow=0;dashed=0;align=center;arcSize=4;whiteSpace=wrap;html=1;fillColor=#FF8754;" parent="1" vertex="1">
          <mxGeometry x="600" y="87.5" width="170" height="117.5" as="geometry" />
        </mxCell>
        <mxCell id="Q2d6617z4SGyky7Ccd5C-18" value="id (pk)&lt;br&gt;nombre" style="align=left;strokeColor=none;fillColor=none;spacingLeft=4;fontSize=12;verticalAlign=top;resizable=0;rotatable=0;part=1;html=1;" parent="Q2d6617z4SGyky7Ccd5C-17" vertex="1">
          <mxGeometry y="50" width="170" height="67.5" as="geometry" />
        </mxCell>
        <mxCell id="Q2d6617z4SGyky7Ccd5C-24" value="directores" style="swimlane;childLayout=stackLayout;horizontal=1;startSize=50;horizontalStack=0;rounded=1;fontSize=14;fontStyle=0;strokeWidth=2;resizeParent=0;resizeLast=1;shadow=0;dashed=0;align=center;arcSize=4;whiteSpace=wrap;html=1;fillColor=#FF8754;" parent="1" vertex="1">
          <mxGeometry x="120" y="-370" width="155" height="130" as="geometry" />
        </mxCell>
        <mxCell id="Q2d6617z4SGyky7Ccd5C-25" value="id (pk)&lt;br&gt;nombre" style="align=left;strokeColor=none;fillColor=none;spacingLeft=4;fontSize=12;verticalAlign=top;resizable=0;rotatable=0;part=1;html=1;" parent="Q2d6617z4SGyky7Ccd5C-24" vertex="1">
          <mxGeometry y="50" width="155" height="80" as="geometry" />
        </mxCell>
        <mxCell id="Q2d6617z4SGyky7Ccd5C-28" value="peliculas_actores" style="swimlane;childLayout=stackLayout;horizontal=1;startSize=50;horizontalStack=0;rounded=1;fontSize=14;fontStyle=0;strokeWidth=2;resizeParent=0;resizeLast=1;shadow=0;dashed=0;align=center;arcSize=4;whiteSpace=wrap;html=1;strokeColor=default;verticalAlign=middle;fontFamily=Helvetica;fontColor=default;fillColor=default;" parent="1" vertex="1">
          <mxGeometry x="360" y="85" width="160" height="120" as="geometry" />
        </mxCell>
        <mxCell id="Q2d6617z4SGyky7Ccd5C-29" value="id_peliculas&lt;br&gt;id_actores" style="align=left;strokeColor=none;fillColor=none;spacingLeft=4;fontSize=12;verticalAlign=top;resizable=0;rotatable=0;part=1;html=1;rounded=1;shadow=0;dashed=0;strokeWidth=2;fontFamily=Helvetica;fontColor=default;startSize=50;" parent="Q2d6617z4SGyky7Ccd5C-28" vertex="1">
          <mxGeometry y="50" width="160" height="70" as="geometry" />
        </mxCell>
        <mxCell id="Q2d6617z4SGyky7Ccd5C-30" value="peliculas_premios" style="swimlane;childLayout=stackLayout;horizontal=1;startSize=50;horizontalStack=0;rounded=1;fontSize=14;fontStyle=0;strokeWidth=2;resizeParent=0;resizeLast=1;shadow=0;dashed=0;align=center;arcSize=4;whiteSpace=wrap;html=1;strokeColor=default;verticalAlign=middle;fontFamily=Helvetica;fontColor=default;fillColor=default;" parent="1" vertex="1">
          <mxGeometry x="360" y="-80" width="160" height="120" as="geometry" />
        </mxCell>
        <mxCell id="Q2d6617z4SGyky7Ccd5C-31" value="id_peliculas&lt;br&gt;id_premios" style="align=left;strokeColor=none;fillColor=none;spacingLeft=4;fontSize=12;verticalAlign=top;resizable=0;rotatable=0;part=1;html=1;rounded=1;shadow=0;dashed=0;strokeWidth=2;fontFamily=Helvetica;fontColor=default;startSize=50;" parent="Q2d6617z4SGyky7Ccd5C-30" vertex="1">
          <mxGeometry y="50" width="160" height="70" as="geometry" />
        </mxCell>
        <mxCell id="Q2d6617z4SGyky7Ccd5C-32" value="peliculas_directores" style="swimlane;childLayout=stackLayout;horizontal=1;startSize=50;horizontalStack=0;rounded=1;fontSize=14;fontStyle=0;strokeWidth=2;resizeParent=0;resizeLast=1;shadow=0;dashed=0;align=center;arcSize=4;whiteSpace=wrap;html=1;strokeColor=default;verticalAlign=middle;fontFamily=Helvetica;fontColor=default;fillColor=default;" parent="1" vertex="1">
          <mxGeometry x="117.5" y="-180" width="160" height="120" as="geometry" />
        </mxCell>
        <mxCell id="Q2d6617z4SGyky7Ccd5C-33" value="id_peliculas&lt;br&gt;id_directores" style="align=left;strokeColor=none;fillColor=none;spacingLeft=4;fontSize=12;verticalAlign=top;resizable=0;rotatable=0;part=1;html=1;rounded=1;shadow=0;dashed=0;strokeWidth=2;fontFamily=Helvetica;fontColor=default;startSize=50;" parent="Q2d6617z4SGyky7Ccd5C-32" vertex="1">
          <mxGeometry y="50" width="160" height="70" as="geometry" />
        </mxCell>
        <mxCell id="Q2d6617z4SGyky7Ccd5C-34" value="peliculas_genero" style="swimlane;childLayout=stackLayout;horizontal=1;startSize=50;horizontalStack=0;rounded=1;fontSize=14;fontStyle=0;strokeWidth=2;resizeParent=0;resizeLast=1;shadow=0;dashed=0;align=center;arcSize=4;whiteSpace=wrap;html=1;strokeColor=default;verticalAlign=middle;fontFamily=Helvetica;fontColor=default;fillColor=default;" parent="1" vertex="1">
          <mxGeometry x="-110" y="-80" width="160" height="127.5" as="geometry" />
        </mxCell>
        <mxCell id="Q2d6617z4SGyky7Ccd5C-35" value="id_actores&lt;br&gt;id_generos" style="align=left;strokeColor=none;fillColor=none;spacingLeft=4;fontSize=12;verticalAlign=top;resizable=0;rotatable=0;part=1;html=1;rounded=1;shadow=0;dashed=0;strokeWidth=2;fontFamily=Helvetica;fontColor=default;startSize=50;" parent="Q2d6617z4SGyky7Ccd5C-34" vertex="1">
          <mxGeometry y="50" width="160" height="77.5" as="geometry" />
        </mxCell>
        <mxCell id="Q2d6617z4SGyky7Ccd5C-36" value="peliculas_plataformas" style="swimlane;childLayout=stackLayout;horizontal=1;startSize=50;horizontalStack=0;rounded=1;fontSize=14;fontStyle=0;strokeWidth=2;resizeParent=0;resizeLast=1;shadow=0;dashed=0;align=center;arcSize=4;whiteSpace=wrap;html=1;strokeColor=default;verticalAlign=middle;fontFamily=Helvetica;fontColor=default;fillColor=default;" parent="1" vertex="1">
          <mxGeometry x="110" y="320" width="160" height="120" as="geometry" />
        </mxCell>
        <mxCell id="Q2d6617z4SGyky7Ccd5C-37" value="id_peliculas&lt;br&gt;id_plataformas" style="align=left;strokeColor=none;fillColor=none;spacingLeft=4;fontSize=12;verticalAlign=top;resizable=0;rotatable=0;part=1;html=1;rounded=1;shadow=0;dashed=0;strokeWidth=2;fontFamily=Helvetica;fontColor=default;startSize=50;" parent="Q2d6617z4SGyky7Ccd5C-36" vertex="1">
          <mxGeometry y="50" width="160" height="70" as="geometry" />
        </mxCell>
        <mxCell id="Q2d6617z4SGyky7Ccd5C-38" value="directores_premios" style="swimlane;childLayout=stackLayout;horizontal=1;startSize=50;horizontalStack=0;rounded=1;fontSize=14;fontStyle=0;strokeWidth=2;resizeParent=0;resizeLast=1;shadow=0;dashed=0;align=center;arcSize=4;whiteSpace=wrap;html=1;strokeColor=default;verticalAlign=middle;fontFamily=Helvetica;fontColor=default;fillColor=default;" parent="1" vertex="1">
          <mxGeometry x="360" y="-370" width="170" height="130" as="geometry" />
        </mxCell>
        <mxCell id="Q2d6617z4SGyky7Ccd5C-39" value="id_directores&lt;br&gt;id_premios" style="align=left;strokeColor=none;fillColor=none;spacingLeft=4;fontSize=12;verticalAlign=top;resizable=0;rotatable=0;part=1;html=1;rounded=1;shadow=0;dashed=0;strokeWidth=2;fontFamily=Helvetica;fontColor=default;startSize=50;" parent="Q2d6617z4SGyky7Ccd5C-38" vertex="1">
          <mxGeometry y="50" width="170" height="80" as="geometry" />
        </mxCell>
        <mxCell id="Q2d6617z4SGyky7Ccd5C-40" value="actores_premios" style="swimlane;childLayout=stackLayout;horizontal=1;startSize=50;horizontalStack=0;rounded=1;fontSize=14;fontStyle=0;strokeWidth=2;resizeParent=0;resizeLast=1;shadow=0;dashed=0;align=center;arcSize=4;whiteSpace=wrap;html=1;strokeColor=default;verticalAlign=middle;fontFamily=Helvetica;fontColor=default;fillColor=default;" parent="1" vertex="1">
          <mxGeometry x="600" y="270" width="160" height="130" as="geometry" />
        </mxCell>
        <mxCell id="Q2d6617z4SGyky7Ccd5C-41" value="id_peliculas&lt;br&gt;id_directores" style="align=left;strokeColor=none;fillColor=none;spacingLeft=4;fontSize=12;verticalAlign=top;resizable=0;rotatable=0;part=1;html=1;rounded=1;shadow=0;dashed=0;strokeWidth=2;fontFamily=Helvetica;fontColor=default;startSize=50;" parent="Q2d6617z4SGyky7Ccd5C-40" vertex="1">
          <mxGeometry y="50" width="160" height="80" as="geometry" />
        </mxCell>
        <mxCell id="Q2d6617z4SGyky7Ccd5C-44" value="" style="endArrow=none;html=1;rounded=0;fontFamily=Helvetica;fontSize=14;fontColor=default;startSize=50;exitX=0.456;exitY=1.019;exitDx=0;exitDy=0;exitPerimeter=0;entryX=0.451;entryY=-0.014;entryDx=0;entryDy=0;entryPerimeter=0;" parent="1" source="Q2d6617z4SGyky7Ccd5C-3" target="Q2d6617z4SGyky7Ccd5C-36" edge="1">
          <mxGeometry relative="1" as="geometry">
            <mxPoint x="80" y="462.5" as="sourcePoint" />
            <mxPoint x="98" y="392.5" as="targetPoint" />
          </mxGeometry>
        </mxCell>
        <mxCell id="Q2d6617z4SGyky7Ccd5C-45" value="M" style="resizable=0;html=1;whiteSpace=wrap;align=left;verticalAlign=bottom;rounded=1;shadow=0;dashed=0;strokeColor=default;strokeWidth=2;fontFamily=Helvetica;fontSize=14;fontColor=default;startSize=50;fillColor=default;" parent="Q2d6617z4SGyky7Ccd5C-44" connectable="0" vertex="1">
          <mxGeometry x="-1" relative="1" as="geometry">
            <mxPoint x="17" y="17" as="offset" />
          </mxGeometry>
        </mxCell>
        <mxCell id="Q2d6617z4SGyky7Ccd5C-46" value="N" style="resizable=0;html=1;whiteSpace=wrap;align=right;verticalAlign=bottom;rounded=1;shadow=0;dashed=0;strokeColor=default;strokeWidth=2;fontFamily=Helvetica;fontSize=14;fontColor=default;startSize=50;fillColor=default;" parent="Q2d6617z4SGyky7Ccd5C-44" connectable="0" vertex="1">
          <mxGeometry x="1" relative="1" as="geometry">
            <mxPoint x="-12" y="-8" as="offset" />
          </mxGeometry>
        </mxCell>
        <mxCell id="Q2d6617z4SGyky7Ccd5C-47" value="" style="endArrow=none;html=1;rounded=0;fontFamily=Helvetica;fontSize=14;fontColor=default;startSize=50;exitX=0.5;exitY=1;exitDx=0;exitDy=0;entryX=0.5;entryY=0;entryDx=0;entryDy=0;" parent="1" source="Q2d6617z4SGyky7Ccd5C-36" target="Q2d6617z4SGyky7Ccd5C-15" edge="1">
          <mxGeometry relative="1" as="geometry">
            <mxPoint x="80" y="462.5" as="sourcePoint" />
            <mxPoint x="240" y="462.5" as="targetPoint" />
          </mxGeometry>
        </mxCell>
        <mxCell id="Q2d6617z4SGyky7Ccd5C-48" value="M" style="resizable=0;html=1;whiteSpace=wrap;align=left;verticalAlign=bottom;rounded=1;shadow=0;dashed=0;strokeColor=default;strokeWidth=2;fontFamily=Helvetica;fontSize=14;fontColor=default;startSize=50;fillColor=default;" parent="Q2d6617z4SGyky7Ccd5C-47" connectable="0" vertex="1">
          <mxGeometry x="-1" relative="1" as="geometry">
            <mxPoint x="10" y="20" as="offset" />
          </mxGeometry>
        </mxCell>
        <mxCell id="Q2d6617z4SGyky7Ccd5C-49" value="N" style="resizable=0;html=1;whiteSpace=wrap;align=right;verticalAlign=bottom;rounded=1;shadow=0;dashed=0;strokeColor=default;strokeWidth=2;fontFamily=Helvetica;fontSize=14;fontColor=default;startSize=50;fillColor=default;" parent="Q2d6617z4SGyky7Ccd5C-47" connectable="0" vertex="1">
          <mxGeometry x="1" relative="1" as="geometry">
            <mxPoint x="-10" y="-10" as="offset" />
          </mxGeometry>
        </mxCell>
        <mxCell id="Q2d6617z4SGyky7Ccd5C-56" value="" style="endArrow=none;html=1;rounded=0;fontFamily=Helvetica;fontSize=14;fontColor=default;startSize=50;entryX=0;entryY=0.25;entryDx=0;entryDy=0;exitX=1.004;exitY=0.388;exitDx=0;exitDy=0;exitPerimeter=0;" parent="1" source="Q2d6617z4SGyky7Ccd5C-3" target="Q2d6617z4SGyky7Ccd5C-29" edge="1">
          <mxGeometry relative="1" as="geometry">
            <mxPoint x="270" y="150" as="sourcePoint" />
            <mxPoint x="350" y="150" as="targetPoint" />
            <Array as="points" />
          </mxGeometry>
        </mxCell>
        <mxCell id="Q2d6617z4SGyky7Ccd5C-57" value="M" style="resizable=0;html=1;whiteSpace=wrap;align=left;verticalAlign=bottom;rounded=1;shadow=0;dashed=0;strokeColor=default;strokeWidth=2;fontFamily=Helvetica;fontSize=14;fontColor=default;startSize=50;fillColor=default;" parent="Q2d6617z4SGyky7Ccd5C-56" connectable="0" vertex="1">
          <mxGeometry x="-1" relative="1" as="geometry">
            <mxPoint x="10" as="offset" />
          </mxGeometry>
        </mxCell>
        <mxCell id="Q2d6617z4SGyky7Ccd5C-58" value="N" style="resizable=0;html=1;whiteSpace=wrap;align=right;verticalAlign=bottom;rounded=1;shadow=0;dashed=0;strokeColor=default;strokeWidth=2;fontFamily=Helvetica;fontSize=14;fontColor=default;startSize=50;fillColor=default;" parent="Q2d6617z4SGyky7Ccd5C-56" connectable="0" vertex="1">
          <mxGeometry x="1" relative="1" as="geometry">
            <mxPoint x="-10" y="30" as="offset" />
          </mxGeometry>
        </mxCell>
        <mxCell id="Q2d6617z4SGyky7Ccd5C-59" value="" style="endArrow=none;html=1;rounded=0;fontFamily=Helvetica;fontSize=14;fontColor=default;startSize=50;entryX=0.5;entryY=1;entryDx=0;entryDy=0;" parent="1" target="Q2d6617z4SGyky7Ccd5C-29" edge="1">
          <mxGeometry relative="1" as="geometry">
            <mxPoint x="440" y="270" as="sourcePoint" />
            <mxPoint x="400" y="205" as="targetPoint" />
            <Array as="points" />
          </mxGeometry>
        </mxCell>
        <mxCell id="Q2d6617z4SGyky7Ccd5C-60" value="M" style="resizable=0;html=1;whiteSpace=wrap;align=left;verticalAlign=bottom;rounded=1;shadow=0;dashed=0;strokeColor=default;strokeWidth=2;fontFamily=Helvetica;fontSize=14;fontColor=default;startSize=50;fillColor=default;" parent="Q2d6617z4SGyky7Ccd5C-59" connectable="0" vertex="1">
          <mxGeometry x="-1" relative="1" as="geometry">
            <mxPoint x="-20" y="-13" as="offset" />
          </mxGeometry>
        </mxCell>
        <mxCell id="Q2d6617z4SGyky7Ccd5C-61" value="N" style="resizable=0;html=1;whiteSpace=wrap;align=right;verticalAlign=bottom;rounded=1;shadow=0;dashed=0;strokeColor=default;strokeWidth=2;fontFamily=Helvetica;fontSize=14;fontColor=default;startSize=50;fillColor=default;" parent="Q2d6617z4SGyky7Ccd5C-59" connectable="0" vertex="1">
          <mxGeometry x="1" relative="1" as="geometry">
            <mxPoint x="20" y="25" as="offset" />
          </mxGeometry>
        </mxCell>
        <mxCell id="Q2d6617z4SGyky7Ccd5C-63" value="" style="endArrow=none;html=1;rounded=0;fontFamily=Helvetica;fontSize=14;fontColor=default;startSize=50;exitX=0.5;exitY=0;exitDx=0;exitDy=0;entryX=0;entryY=0.25;entryDx=0;entryDy=0;" parent="1" source="Q2d6617z4SGyky7Ccd5C-2" target="Q2d6617z4SGyky7Ccd5C-31" edge="1">
          <mxGeometry relative="1" as="geometry">
            <mxPoint x="510" y="200" as="sourcePoint" />
            <mxPoint x="670" y="200" as="targetPoint" />
            <Array as="points">
              <mxPoint x="190" y="-12" />
              <mxPoint x="270" y="-12" />
            </Array>
          </mxGeometry>
        </mxCell>
        <mxCell id="Q2d6617z4SGyky7Ccd5C-64" value="M" style="resizable=0;html=1;whiteSpace=wrap;align=left;verticalAlign=bottom;rounded=1;shadow=0;dashed=0;strokeColor=default;strokeWidth=2;fontFamily=Helvetica;fontSize=14;fontColor=default;startSize=50;fillColor=default;" parent="Q2d6617z4SGyky7Ccd5C-63" connectable="0" vertex="1">
          <mxGeometry x="-1" relative="1" as="geometry">
            <mxPoint x="10" y="-10" as="offset" />
          </mxGeometry>
        </mxCell>
        <mxCell id="Q2d6617z4SGyky7Ccd5C-65" value="N" style="resizable=0;html=1;whiteSpace=wrap;align=right;verticalAlign=bottom;rounded=1;shadow=0;dashed=0;strokeColor=default;strokeWidth=2;fontFamily=Helvetica;fontSize=14;fontColor=default;startSize=50;fillColor=default;" parent="Q2d6617z4SGyky7Ccd5C-63" connectable="0" vertex="1">
          <mxGeometry x="1" relative="1" as="geometry">
            <mxPoint x="-10" y="-7" as="offset" />
          </mxGeometry>
        </mxCell>
        <mxCell id="Q2d6617z4SGyky7Ccd5C-66" value="" style="endArrow=none;html=1;rounded=0;fontFamily=Helvetica;fontSize=14;fontColor=default;startSize=50;entryX=1;entryY=0.25;entryDx=0;entryDy=0;" parent="1" target="Q2d6617z4SGyky7Ccd5C-31" edge="1">
          <mxGeometry relative="1" as="geometry">
            <mxPoint x="670" y="80" as="sourcePoint" />
            <mxPoint x="670" y="200" as="targetPoint" />
            <Array as="points">
              <mxPoint x="670" y="-12" />
            </Array>
          </mxGeometry>
        </mxCell>
        <mxCell id="Q2d6617z4SGyky7Ccd5C-67" value="M" style="resizable=0;html=1;whiteSpace=wrap;align=left;verticalAlign=bottom;rounded=1;shadow=0;dashed=0;strokeColor=default;strokeWidth=2;fontFamily=Helvetica;fontSize=14;fontColor=default;startSize=50;fillColor=default;" parent="Q2d6617z4SGyky7Ccd5C-66" connectable="0" vertex="1">
          <mxGeometry x="-1" relative="1" as="geometry">
            <mxPoint x="10" y="-10" as="offset" />
          </mxGeometry>
        </mxCell>
        <mxCell id="Q2d6617z4SGyky7Ccd5C-68" value="N" style="resizable=0;html=1;whiteSpace=wrap;align=right;verticalAlign=bottom;rounded=1;shadow=0;dashed=0;strokeColor=default;strokeWidth=2;fontFamily=Helvetica;fontSize=14;fontColor=default;startSize=50;fillColor=default;" parent="Q2d6617z4SGyky7Ccd5C-66" connectable="0" vertex="1">
          <mxGeometry x="1" relative="1" as="geometry">
            <mxPoint x="20" y="20" as="offset" />
          </mxGeometry>
        </mxCell>
        <mxCell id="Q2d6617z4SGyky7Ccd5C-69" value="" style="endArrow=none;html=1;rounded=0;fontFamily=Helvetica;fontSize=14;fontColor=default;startSize=50;exitX=1;exitY=0.25;exitDx=0;exitDy=0;entryX=0;entryY=0.25;entryDx=0;entryDy=0;" parent="1" source="Q2d6617z4SGyky7Ccd5C-6" target="Q2d6617z4SGyky7Ccd5C-41" edge="1">
          <mxGeometry relative="1" as="geometry">
            <mxPoint x="270" y="180" as="sourcePoint" />
            <mxPoint x="430" y="180" as="targetPoint" />
          </mxGeometry>
        </mxCell>
        <mxCell id="Q2d6617z4SGyky7Ccd5C-70" value="M" style="resizable=0;html=1;whiteSpace=wrap;align=left;verticalAlign=bottom;rounded=1;shadow=0;dashed=0;strokeColor=default;strokeWidth=2;fontFamily=Helvetica;fontSize=14;fontColor=default;startSize=50;fillColor=default;" parent="Q2d6617z4SGyky7Ccd5C-69" connectable="0" vertex="1">
          <mxGeometry x="-1" relative="1" as="geometry">
            <mxPoint x="10" y="-10" as="offset" />
          </mxGeometry>
        </mxCell>
        <mxCell id="Q2d6617z4SGyky7Ccd5C-71" value="N" style="resizable=0;html=1;whiteSpace=wrap;align=right;verticalAlign=bottom;rounded=1;shadow=0;dashed=0;strokeColor=default;strokeWidth=2;fontFamily=Helvetica;fontSize=14;fontColor=default;startSize=50;fillColor=default;" parent="Q2d6617z4SGyky7Ccd5C-69" connectable="0" vertex="1">
          <mxGeometry x="1" relative="1" as="geometry">
            <mxPoint x="-10" y="30" as="offset" />
          </mxGeometry>
        </mxCell>
        <mxCell id="Q2d6617z4SGyky7Ccd5C-72" value="" style="endArrow=none;html=1;rounded=0;fontFamily=Helvetica;fontSize=14;fontColor=default;startSize=50;exitX=0.5;exitY=1;exitDx=0;exitDy=0;" parent="1" source="Q2d6617z4SGyky7Ccd5C-18" edge="1">
          <mxGeometry relative="1" as="geometry">
            <mxPoint x="270" y="180" as="sourcePoint" />
            <mxPoint x="685" y="260" as="targetPoint" />
          </mxGeometry>
        </mxCell>
        <mxCell id="Q2d6617z4SGyky7Ccd5C-73" value="M" style="resizable=0;html=1;whiteSpace=wrap;align=left;verticalAlign=bottom;rounded=1;shadow=0;dashed=0;strokeColor=default;strokeWidth=2;fontFamily=Helvetica;fontSize=14;fontColor=default;startSize=50;fillColor=default;" parent="Q2d6617z4SGyky7Ccd5C-72" connectable="0" vertex="1">
          <mxGeometry x="-1" relative="1" as="geometry">
            <mxPoint x="5" y="20" as="offset" />
          </mxGeometry>
        </mxCell>
        <mxCell id="Q2d6617z4SGyky7Ccd5C-74" value="N" style="resizable=0;html=1;whiteSpace=wrap;align=right;verticalAlign=bottom;rounded=1;shadow=0;dashed=0;strokeColor=default;strokeWidth=2;fontFamily=Helvetica;fontSize=14;fontColor=default;startSize=50;fillColor=default;" parent="Q2d6617z4SGyky7Ccd5C-72" connectable="0" vertex="1">
          <mxGeometry x="1" relative="1" as="geometry">
            <mxPoint x="-5" as="offset" />
          </mxGeometry>
        </mxCell>
        <mxCell id="Q2d6617z4SGyky7Ccd5C-77" value="" style="endArrow=none;html=1;rounded=0;fontFamily=Helvetica;fontSize=14;fontColor=default;startSize=50;exitX=-0.025;exitY=0.338;exitDx=0;exitDy=0;exitPerimeter=0;entryX=1;entryY=0.5;entryDx=0;entryDy=0;" parent="1" source="Q2d6617z4SGyky7Ccd5C-3" target="Q2d6617z4SGyky7Ccd5C-34" edge="1">
          <mxGeometry relative="1" as="geometry">
            <mxPoint x="-70" y="-150" as="sourcePoint" />
            <mxPoint x="90" y="-150" as="targetPoint" />
            <Array as="points">
              <mxPoint x="106" y="-16" />
            </Array>
          </mxGeometry>
        </mxCell>
        <mxCell id="Q2d6617z4SGyky7Ccd5C-78" value="M" style="resizable=0;html=1;whiteSpace=wrap;align=left;verticalAlign=bottom;rounded=1;shadow=0;dashed=0;strokeColor=default;strokeWidth=2;fontFamily=Helvetica;fontSize=14;fontColor=default;startSize=50;fillColor=default;" parent="Q2d6617z4SGyky7Ccd5C-77" connectable="0" vertex="1">
          <mxGeometry x="-1" relative="1" as="geometry">
            <mxPoint x="-26" y="6" as="offset" />
          </mxGeometry>
        </mxCell>
        <mxCell id="Q2d6617z4SGyky7Ccd5C-79" value="N" style="resizable=0;html=1;whiteSpace=wrap;align=right;verticalAlign=bottom;rounded=1;shadow=0;dashed=0;strokeColor=default;strokeWidth=2;fontFamily=Helvetica;fontSize=14;fontColor=default;startSize=50;fillColor=default;" parent="Q2d6617z4SGyky7Ccd5C-77" connectable="0" vertex="1">
          <mxGeometry x="1" relative="1" as="geometry">
            <mxPoint x="20" y="-4" as="offset" />
          </mxGeometry>
        </mxCell>
        <mxCell id="Q2d6617z4SGyky7Ccd5C-80" value="" style="endArrow=none;html=1;rounded=0;fontFamily=Helvetica;fontSize=14;fontColor=default;startSize=50;exitX=0.5;exitY=1;exitDx=0;exitDy=0;" parent="1" source="Q2d6617z4SGyky7Ccd5C-35" edge="1">
          <mxGeometry relative="1" as="geometry">
            <mxPoint x="-30" y="60" as="sourcePoint" />
            <mxPoint x="-30" y="102.5" as="targetPoint" />
          </mxGeometry>
        </mxCell>
        <mxCell id="Q2d6617z4SGyky7Ccd5C-81" value="M" style="resizable=0;html=1;whiteSpace=wrap;align=left;verticalAlign=bottom;rounded=1;shadow=0;dashed=0;strokeColor=default;strokeWidth=2;fontFamily=Helvetica;fontSize=14;fontColor=default;startSize=50;fillColor=default;" parent="Q2d6617z4SGyky7Ccd5C-80" connectable="0" vertex="1">
          <mxGeometry x="-1" relative="1" as="geometry">
            <mxPoint x="10" y="23" as="offset" />
          </mxGeometry>
        </mxCell>
        <mxCell id="Q2d6617z4SGyky7Ccd5C-82" value="N" style="resizable=0;html=1;whiteSpace=wrap;align=right;verticalAlign=bottom;rounded=1;shadow=0;dashed=0;strokeColor=default;strokeWidth=2;fontFamily=Helvetica;fontSize=14;fontColor=default;startSize=50;fillColor=default;" parent="Q2d6617z4SGyky7Ccd5C-80" connectable="0" vertex="1">
          <mxGeometry x="1" relative="1" as="geometry">
            <mxPoint x="-10" y="-2" as="offset" />
          </mxGeometry>
        </mxCell>
        <mxCell id="Q2d6617z4SGyky7Ccd5C-83" value="" style="endArrow=none;html=1;rounded=0;fontFamily=Helvetica;fontSize=14;fontColor=default;startSize=50;exitX=0.25;exitY=0;exitDx=0;exitDy=0;entryX=0.199;entryY=1.067;entryDx=0;entryDy=0;entryPerimeter=0;" parent="1" source="Q2d6617z4SGyky7Ccd5C-2" target="Q2d6617z4SGyky7Ccd5C-33" edge="1">
          <mxGeometry relative="1" as="geometry">
            <mxPoint x="270" y="-20" as="sourcePoint" />
            <mxPoint x="430" y="-20" as="targetPoint" />
          </mxGeometry>
        </mxCell>
        <mxCell id="Q2d6617z4SGyky7Ccd5C-84" value="M" style="resizable=0;html=1;whiteSpace=wrap;align=left;verticalAlign=bottom;rounded=1;shadow=0;dashed=0;strokeColor=default;strokeWidth=2;fontFamily=Helvetica;fontSize=14;fontColor=default;startSize=50;fillColor=default;" parent="Q2d6617z4SGyky7Ccd5C-83" connectable="0" vertex="1">
          <mxGeometry x="-1" relative="1" as="geometry">
            <mxPoint x="10" y="-10" as="offset" />
          </mxGeometry>
        </mxCell>
        <mxCell id="Q2d6617z4SGyky7Ccd5C-85" value="N" style="resizable=0;html=1;whiteSpace=wrap;align=right;verticalAlign=bottom;rounded=1;shadow=0;dashed=0;strokeColor=default;strokeWidth=2;fontFamily=Helvetica;fontSize=14;fontColor=default;startSize=50;fillColor=default;" parent="Q2d6617z4SGyky7Ccd5C-83" connectable="0" vertex="1">
          <mxGeometry x="1" relative="1" as="geometry">
            <mxPoint x="-9" y="25" as="offset" />
          </mxGeometry>
        </mxCell>
        <mxCell id="Q2d6617z4SGyky7Ccd5C-86" value="" style="endArrow=none;html=1;rounded=0;fontFamily=Helvetica;fontSize=14;fontColor=default;startSize=50;exitX=0.5;exitY=1;exitDx=0;exitDy=0;entryX=0.5;entryY=0;entryDx=0;entryDy=0;" parent="1" source="Q2d6617z4SGyky7Ccd5C-25" target="Q2d6617z4SGyky7Ccd5C-32" edge="1">
          <mxGeometry relative="1" as="geometry">
            <mxPoint x="270" y="-20" as="sourcePoint" />
            <mxPoint x="430" y="-20" as="targetPoint" />
          </mxGeometry>
        </mxCell>
        <mxCell id="Q2d6617z4SGyky7Ccd5C-87" value="M" style="resizable=0;html=1;whiteSpace=wrap;align=left;verticalAlign=bottom;rounded=1;shadow=0;dashed=0;strokeColor=default;strokeWidth=2;fontFamily=Helvetica;fontSize=14;fontColor=default;startSize=50;fillColor=default;" parent="Q2d6617z4SGyky7Ccd5C-86" connectable="0" vertex="1">
          <mxGeometry x="-1" relative="1" as="geometry">
            <mxPoint x="13" y="20" as="offset" />
          </mxGeometry>
        </mxCell>
        <mxCell id="Q2d6617z4SGyky7Ccd5C-88" value="N" style="resizable=0;html=1;whiteSpace=wrap;align=right;verticalAlign=bottom;rounded=1;shadow=0;dashed=0;strokeColor=default;strokeWidth=2;fontFamily=Helvetica;fontSize=14;fontColor=default;startSize=50;fillColor=default;" parent="Q2d6617z4SGyky7Ccd5C-86" connectable="0" vertex="1">
          <mxGeometry x="1" relative="1" as="geometry">
            <mxPoint x="-7" as="offset" />
          </mxGeometry>
        </mxCell>
        <mxCell id="Q2d6617z4SGyky7Ccd5C-90" value="" style="endArrow=none;html=1;rounded=0;fontFamily=Helvetica;fontSize=14;fontColor=default;startSize=50;exitX=1.011;exitY=0.133;exitDx=0;exitDy=0;exitPerimeter=0;entryX=0;entryY=0.125;entryDx=0;entryDy=0;entryPerimeter=0;" parent="1" source="Q2d6617z4SGyky7Ccd5C-25" target="Q2d6617z4SGyky7Ccd5C-39" edge="1">
          <mxGeometry relative="1" as="geometry">
            <mxPoint x="270" y="-20" as="sourcePoint" />
            <mxPoint x="350" y="-310" as="targetPoint" />
          </mxGeometry>
        </mxCell>
        <mxCell id="Q2d6617z4SGyky7Ccd5C-91" value="M" style="resizable=0;html=1;whiteSpace=wrap;align=left;verticalAlign=bottom;rounded=1;shadow=0;dashed=0;strokeColor=default;strokeWidth=2;fontFamily=Helvetica;fontSize=14;fontColor=default;startSize=50;fillColor=default;" parent="Q2d6617z4SGyky7Ccd5C-90" connectable="0" vertex="1">
          <mxGeometry x="-1" relative="1" as="geometry">
            <mxPoint x="3" as="offset" />
          </mxGeometry>
        </mxCell>
        <mxCell id="Q2d6617z4SGyky7Ccd5C-92" value="N" style="resizable=0;html=1;whiteSpace=wrap;align=right;verticalAlign=bottom;rounded=1;shadow=0;dashed=0;strokeColor=default;strokeWidth=2;fontFamily=Helvetica;fontSize=14;fontColor=default;startSize=50;fillColor=default;" parent="Q2d6617z4SGyky7Ccd5C-90" connectable="0" vertex="1">
          <mxGeometry x="1" relative="1" as="geometry">
            <mxPoint x="-10" y="20" as="offset" />
          </mxGeometry>
        </mxCell>
        <mxCell id="Q2d6617z4SGyky7Ccd5C-93" value="" style="endArrow=none;html=1;rounded=0;fontFamily=Helvetica;fontSize=14;fontColor=default;startSize=50;entryX=1.012;entryY=0.125;entryDx=0;entryDy=0;entryPerimeter=0;" parent="1" target="Q2d6617z4SGyky7Ccd5C-39" edge="1">
          <mxGeometry relative="1" as="geometry">
            <mxPoint x="730" y="80" as="sourcePoint" />
            <mxPoint x="430" y="-20" as="targetPoint" />
            <Array as="points">
              <mxPoint x="730" y="-310" />
            </Array>
          </mxGeometry>
        </mxCell>
        <mxCell id="Q2d6617z4SGyky7Ccd5C-94" value="M" style="resizable=0;html=1;whiteSpace=wrap;align=left;verticalAlign=bottom;rounded=1;shadow=0;dashed=0;strokeColor=default;strokeWidth=2;fontFamily=Helvetica;fontSize=14;fontColor=default;startSize=50;fillColor=default;" parent="Q2d6617z4SGyky7Ccd5C-93" connectable="0" vertex="1">
          <mxGeometry x="-1" relative="1" as="geometry">
            <mxPoint x="10" y="-10" as="offset" />
          </mxGeometry>
        </mxCell>
        <mxCell id="Q2d6617z4SGyky7Ccd5C-95" value="N" style="resizable=0;html=1;whiteSpace=wrap;align=right;verticalAlign=bottom;rounded=1;shadow=0;dashed=0;strokeColor=default;strokeWidth=2;fontFamily=Helvetica;fontSize=14;fontColor=default;startSize=50;fillColor=default;" parent="Q2d6617z4SGyky7Ccd5C-93" connectable="0" vertex="1">
          <mxGeometry x="1" relative="1" as="geometry">
            <mxPoint x="18" y="20" as="offset" />
          </mxGeometry>
        </mxCell>
      </root>
    </mxGraphModel>
  </diagram>
</mxfile>
